Programación funcional y datos categóricos
…
compose(`!`,is.double) -> not_double

data %>% select_if(not_double) %>% names 

## [1] "playerID" "yearID"   "AB"       "teamID"   "lgID"     "G"        "R"       
## [8] "HR"       "SH"

data[['playerID']] %<>% as.factor
data[['yearID']] %<>% as.factor
data[['teamID']] %<>% as.factor

data %>% select_if(is.factor) %>% as.list %>% map(fct_count)

## $playerID
## # A tibble: 19,182 x 2
##    f             n
##    <fct>     <int>
##  1 aardsda01     9
##  2 aaronha01    23
##  3 aaronto01     7
##  4 aasedo01     13
##  5 abadan01      3
##  6 abadfe01      9
##  7 abadijo01     2
##  8 abbated01    10
##  9 abbeybe01     6
## 10 abbeych01     5
## # ... with 19,172 more rows
## 
## $yearID
## # A tibble: 147 x 2
##    f         n
##    <fct> <int>
##  1 1871    115
##  2 1872    157
##  3 1873    125
##  4 1874    123
##  5 1875    218
##  6 1876    124
##  7 1877     98
##  8 1878     80
##  9 1879    127
## 10 1880    135
## # ... with 137 more rows
## 
## $teamID
## # A tibble: 149 x 2
##    f         n
##    <fct> <int>
##  1 ALT      18
##  2 ANA     337
##  3 ARI     925
##  4 ATL    2159
##  5 BAL    2615
##  6 BFN     122
##  7 BFP      26
##  8 BL1      48
##  9 BL2     197
## 10 BL3      36
## # ... with 139 more rows
…
