2 CLASE 2 - Creación y exploración de estructuras de datos | Principios de bioinformática y ciencias de biodatos
…
# Data suplementaria bonita
suplementaria.url <- "https://www.pnas.org/highwire/filestream/794560/field_highwire_adjunct_files/0/pnas.1800165115.sd01.xlsx"
destfile <- "pnas_1800165115_sd01.xlsx"

#Para LINUX usar:
download.file(url= suplementaria.url,  destfile= 'sup_bonita.xlsx', method = "wget") 

#Para WINDOWS usar:
download.file(url= suplementaria.url,  destfile= 'sup_bonita.xlsx', method = "libcurl")

suplementaria.bonita <- read_excel( "sup_bonita.xlsx" )
suplementaria.bonita

## # A tibble: 368 x 11
##    GeneID  `Entrez Gene Na… P7MeanFPKM P32MeanFPKM `10wkMeanFPKM` `9.5mMeanFPKM`
##    <chr>   <chr>                 <dbl>       <dbl>          <dbl>          <dbl>
##  1 Ctss    cathepsin S           0.59        1.13            3.03           8.32
##  2 Oasl2   2'-5' oligoaden…      1.06        3.37            3.70          36.1 
##  3 Zc3hav1 zinc finger CCC…      0.58        1.42            1.53           6.84
##  4 Ggta1   glycoprotein ga…      1.65        0.993           1.04           4.89
##  5 Lyz2    lysozyme              1.01        1.44            3.46           4.57
##  6 Ifit1   interferon-indu…      0.773       2.08            2.12          13   
##  7 Tyrobp  TYRO protein ty…      3.06        4.73            3.33           4.15
##  8 C4b     complement comp…      1.37        7.39            8.02          23.1 
##  9 Wdfy1   WD repeat and F…     10.3         4.07            1.36           1.65
## 10 Osmr    oncostatin M re…      6.49        6.40            4.52          13.3 
## # … with 358 more rows, and 5 more variables: 2yrMeanFPKM <dbl>, log2 FC <dbl>,
## #   logCPM <dbl>, PValue <dbl>, FDR <dbl>
…
