4 CLASE 4 - Descargas desde repositorios e interacción con objetos descargados | Principios de bioinformática y ciencias de biodatos
…
my_names <- c('genes', 'reactions', 'metabolites')

recon3_list.map %<>% purrr::set_names(my_names)

rename_ids <- function(df){df %>% as_tibble %>% rename_with(tolower) %>%  rename_with(~str_replace(., '.*id.*','ID'))}

rename_ids <- function(df){df %>% as_tibble %>% rename_with(~str_replace(.,regex('.*iD.*', ignore_case = T) ,'ID'))}

recon3_list.map$genes %>% rename_ids

## # A tibble: 2,248 x 2
##         ID Reactions                                                            
##      <dbl> <chr>                                                                
##  1    26.1 ['RE0690E', '13DAMPPOX', '42A12BOOX', 'r0281', 'RE0827E', 'TRYPTAOX'…
##  2   314.  ['13DAMPPOX', '42A12BOOX', 'TRYPTAOX', 'PEAMNO', 'HISTASE', 'MAOX', …
##  3  8639.  ['MAOX', 'AACTOOR', '13DAMPPOX', '42A12BOOX', 'PTRCOX1', 'MHISOR']   
##  4   314.  ['13DAMPPOX', '42A12BOOX', 'TRYPTAOX', 'PEAMNO', 'HISTASE', 'MAOX', …
##  5  1591.  ['24_25VITD2Hm', '24_25VITD3Hm']                                     
##  6  1594.  ['25VITD2Hm', '25HVITD3c', '25VITD3Hm']                              
##  7 10993.  ['r0060', '2AMACHYD', 'THRD_L', 'SERHL']                             
##  8  6818.  ['5ADTSTSTERONESULT', '2AMACSULT', 'NRPPHRSULT', 'HMR_6844', 'CHSTER…
##  9 89874.  ['2OXOADPTm', 'r0879', '2AMADPTm']                                   
## 10  3948.  ['2HIVc', 'GLXO1', '2HBO', 'HPYRR2x', 'r0173', 'LDH_L', '2H3MVc', 'M…
## # … with 2,238 more rows
…
c("glucose","phenyl","rna") -> some_keywords

map(some_keywords, rxn_name_to_genes) %>% set_names(some_keywords) %>% tibble(genes=., keyword = some_keywords) %>% unnest(cols = c(genes))

## # A tibble: 112 x 2
##     genes keyword
##     <dbl> <chr>  
##  1 57818. glucose
##  2 92579. glucose
##  3  2538. glucose
##  4  6517. glucose
##  5  6515. glucose
##  6  6513. glucose
##  7 84920. glucose
##  8  5169. glucose
##  9  5167. glucose
## 10 66035. glucose
## # … with 102 more rows

set_long_df <- function(a_list, keywords){a_list %>% set_names(keywords) %>% tibble(genes=., keyword = keywords) %>% unnest(cols = c(genes))}
some_keywords %>%map(rxn_name_to_genes)%>% set_long_df(some_keywords)

## # A tibble: 112 x 2
##     genes keyword
##     <dbl> <chr>  
##  1 57818. glucose
##  2 92579. glucose
##  3  2538. glucose
##  4  6517. glucose
##  5  6515. glucose
##  6  6513. glucose
##  7 84920. glucose
##  8  5169. glucose
##  9  5167. glucose
## 10 66035. glucose
## # … with 102 more rows
…
