Programación funcional
…
df_list['GSM4462281']

## $GSM4462281
## # A tibble: 100,584 x 5
##    target_id          length eff_length est_counts      tpm
##    <chr>               <dbl>      <dbl>      <dbl>    <dbl>
##  1 ENSMUST00000000001   3262      3110.     16971  196.    
##  2 ENSMUST00000000003    902       750.         0    0     
##  3 ENSMUST00000114041    697       545.         0    0     
##  4 ENSMUST00000000028   2143      1991.       972.  17.6   
##  5 ENSMUST00000096990   1747      1595.       178.   4.01  
##  6 ENSMUST00000115585    832       680.         0    0     
##  7 ENSMUST00000019101   4842      4690.         0    0     
##  8 ENSMUST00000074802   3440      3288.         2    0.0219
##  9 ENSMUST00000077375   3550      3398.         0    0     
## 10 ENSMUST00000087090   2953      2801.         0    0     
## # ... with 100,574 more rows
…
